80100000 .text
80108024 .rodata
80108696 .stab
80108697 .stabstr
80109000 .data
8010b5c0 .bss
00000000 .debug_line
00000000 .debug_info
00000000 .debug_abbrev
00000000 .debug_aranges
00000000 .debug_str
00000000 .comment
00000000 bio.c
801000b0 bget
00000000 console.c
801002b0 inb
801002cd outb
801002eb cli
8010b5c0 panicked
8010b5e0 cons
801002f1 printint
80109004 digits.1509
80100750 consputc
80109000 crt
801005ca cgaputc
00000000 exec.c
00000000 file.c
00000000 fs.c
80101323 bzero
80101374 balloc
801014c2 bfree
80101743 iget
80101bf6 itrunc
80101ae9 bmap
80102229 skipelem
801022db namex
00000000 ide.c
80102436 inb
80102453 insl
80102478 outb
80102496 outsl
8010b620 idelock
8010b654 idequeue
8010b658 havedisk1
801024bb idewait
801025a5 idestart
00000000 ioapic.c
80102865 ioapicread
8010287c ioapicwrite
00000000 kalloc.c
80102993 v2p
00000000 kbd.c
80102b1b inb
80109020 shiftcode
80109120 togglecode
80109220 normalmap
80109320 shiftmap
80109420 ctlmap
8010b65c shift.1347
80109520 charcode.1348
00000000 lapic.c
80102c9f outb
80102cbd readeflags
80102ccd lapicw
8010b660 n.1422
00000000 log.c
801031b0 recover_from_log
80103018 install_trans
801030c6 read_head
80103135 write_head
00000000 main.c
8010337d v2p
8010338a p2v
80103397 xchg
801034c2 startothers
8010347b mpmain
80103461 mpenter
00000000 mp.c
801035a4 p2v
801035b1 inb
801035ce outb
8010b664 bcpu
8010360a sum
80103642 mpsearch1
801036b7 mpsearch
80103771 mpconfig
00000000 picirq.c
801039e5 outb
8010b000 irqmask
80103a03 picsetmask
00000000 pipe.c
00000000 proc.c
80103f70 readeflags
80103f80 sti
8010b668 initproc
80103fa2 allocproc
80104833 wakeup1
8010b008 first.1538
8010b00c states.1563
00000000 spinlock.c
80104a0b readeflags
80104a1b cli
80104a21 sti
80104a27 xchg
00000000 string.c
80104c6c stosb
80104c91 stosl
00000000 syscall.c
8010b060 syscalls
00000000 sysfile.c
8010515b argfd
801051d0 fdalloc
80105598 isdirempty
801057d9 create
00000000 sysproc.c
00000000 timer.c
80106035 outb
00000000 trap.c
801060ce lidt
801060f7 rcr2
00000000 uart.c
8010651b inb
80106538 outb
8010b66c uart
801066c4 uartgetc
00000000 vm.c
8010718e lgdt
801071b7 ltr
801071cd loadgs
801071e2 lcr3
801071ed v2p
801071fa p2v
8010767d walkpgdir
8010771f mappages
8010b4c0 kmap
00000000 
8010091b consoleread
801070e6 vector242
80106b3d vector119
8010000c entry
80106a1d vector87
80106a14 vector86
80104ed6 safestrcpy
8010536b sys_close
80107152 vector251
801031d1 begin_trans
8010b040 sysCounter
80106a41 vector91
80106837 vector33
80106d26 vector162
8010473a yield
8010f8a0 log
8010f860 kmem
80106f8a vector213
80106ada vector108
80106556 uartinit
80106891 vector43
80102e9f lapiceoi
80106053 timerinit
80106d4a vector165
80106e3a vector185
80102896 ioapicinit
80106b19 vector115
801010df fileread
80106b58 vector122
80105f10 sys_sbrk
8010f920 ioapicid
80106cde vector156
8010710a vector245
8010f854 ioapic
80106e6a vector189
8010675b vector7
80106933 vector61
801067e6 vector24
80106af5 vector111
80106eee vector200
80106969 vector67
80106c06 vector138
801069a8 vector74
80104688 sched
80104d85 memmove
8010690f vector57
801050bf syscall
80106f96 vector214
80106a89 vector99
80101eb8 writei
80106c2a vector141
80105ea5 sys_fork
8010c680 bcache
80106d9e vector172
801070da vector241
8010f924 ismp
80104b13 getcallerpcs
80105b21 sys_mkdir
8010716a vector253
80106737 vector3
8010672e vector2
80102047 namecmp
80107032 vector227
80106f66 vector210
80105088 argstr
8010700e vector224
8010687f vector41
801003a0 cprintf
80100f72 filedup
801023f2 namei
801067cb vector21
80100034 binit
80106dda vector177
80106b34 vector118
80106984 vector70
8010697b vector69
801070aa vector237
8010694e vector64
80106801 vector27
80106bbe vector132
80106e46 vector186
80105273 sys_read
80106fba vector217
80104f5c fetchint
801077b7 setupkvm
80104e07 memcpy
80107d1b freevm
80106725 vector1
80106de6 vector178
80106864 vector38
80102a35 kfree
801070b6 vector238
801019fa iput
80106bca vector133
8010699f vector73
80106c4e vector144
80107176 vector254
801012dd readsb
8010b004 nextpid
80106a9b vector101
80106f72 vector211
8010381e mpinit
80106db6 vector174
801070f2 vector243
80102e47 cpunum
80100ef6 fileinit
801126e0 gdt
80104a41 initlock
80106b8e vector128
80107f7a copyout
801069e7 vector81
80104798 sleep
80102ec4 microdelay
80106789 vector13
801068d9 vector51
801067a0 vector16
8010ddc0 input
801070ce vector240
801068f4 vector54
801067b9 vector19
80106a4a vector92
801070fe vector244
80101d0f stati
80106c1e vector140
80105ed1 sys_kill
801068a3 vector45
801069d5 vector79
80103cfe pipeclose
8010704a vector229
80106cf6 vector158
801053bc sys_fstat
80100a1a consolewrite
8010686d vector39
80106d6e vector168
80106849 vector35
80106b07 vector113
801029fc freerange
80106b73 vector125
80107b85 allocuvm
801060c3 trapret
80106fae vector216
80106945 vector63
801067f8 vector26
80106e9a vector193
80102cee lapicinit
80106ebe vector196
80106f5a vector209
80106740 vector4
80106d86 vector170
8010b670 stack
80106bee vector136
80106774 vector10
80106f36 vector206
80101995 iunlock
80105f5a sys_sleep
80107182 vector255
80106e0a vector181
80106921 vector59
80106a0b vector85
80106a02 vector84
80106e22 vector183
80106d02 vector159
80106f7e vector212
8010541b sys_link
801068b5 vector47
8010703e vector228
80106888 vector42
80106b10 vector114
80107f1d uva2ka
80106dc2 vector175
80106c42 vector143
80100f12 filealloc
80104871 wakeup
80106ba6 vector130
80107116 vector246
8010676b vector9
80106c36 vector142
80106a92 vector100
80106efa vector201
80107db5 clearpteu
80106108 tvinit
8010692a vector60
801067dd vector23
80101815 idup
8010709e vector236
80102c8b kbdintr
80105999 sys_open
80107062 vector231
80106960 vector66
80106813 vector29
80101d54 readi
80106be2 vector135
801007ad consoleintr
8010489c kill
801069c3 vector77
801015ac ialloc
80106dfe vector180
80112718 kpgdir
80106f4e vector208
80106708 uartintr
80106a80 vector98
80106a77 vector97
80106dce vector176
80106ea6 vector194
8010682e vector32
8011271c end
80106ee2 vector199
80106bb2 vector131
8010715e vector252
8010119b filewrite
8010671c vector0
80104ff8 argint
80100aef exec
80106c5a vector145
801052ef sys_write
80104ac4 release
80104f96 fetchstr
80106ad1 vector107
80106876 vector40
801044e1 wait
80106aa4 vector102
8010a000 entrypgdir
0010000c _start
80106906 vector56
80106972 vector68
80106752 vector6
8010b52c _binary_initcode_end
80100000 multiboot_header
80106b9a vector129
801045f0 scheduler
80102069 dirlookup
80106eca vector197
80100fba fileclose
8010321a commit_trans
80106cae vector152
80107874 kvmalloc
80107056 vector230
80104e28 strncmp
8010685b vector37
80106f2a vector205
80106d1a vector161
80111e80 tickslock
80103d90 pipewrite
80104e7e strncpy
8010698d vector71
80107dfb copyuvm
8010de80 ftable
80106d0e vector160
80105026 argptr
80106fa2 vector215
80106cea vector157
8010521c sys_dup
80106afe vector112
8010053a panic
80106017 sys_getsyscallinfo
8010476c forkret
80106e16 vector182
80106782 vector12
80104d2d memcmp
80102b38 kbdgetc
80106ae3 vector109
801067c2 vector20
80104266 fork
801068eb vector53
801067b0 vector18
0000008a _binary_entryother_size
8010f940 cpus
80106a65 vector95
80104b8c holding
80104a62 acquire
80107026 vector226
80102414 nameiparent
801068c7 vector49
8010689a vector44
8010f89c lapic
801069cc vector78
801060a3 alltraps
80106daa vector173
80106b2b vector117
801069f0 vector82
80103a4e picenable
80106ff6 vector222
80106764 vector8
80106c8a vector149
8010168b iupdate
80109000 data
80104cb6 memset
8010706e vector232
801033b1 main
8010788b switchkvm
80106ac8 vector106
80106fde vector220
80106a38 vector90
80106d32 vector163
80107086 vector234
80103272 log_write
80105606 sys_unlink
8010693c vector62
801067ef vector25
80106ed6 vector198
80106b46 vector120
8010b52c _binary_entryother_start
801029a0 kinit1
801068d0 vector50
80106797 vector15
80106ca2 vector151
801069f9 vector83
80106a2f vector89
80106a26 vector88
80106298 trap
80105fec sys_uptime
80106df2 vector179
80106840 vector34
801068ac vector46
80106bd6 vector134
80107002 vector223
80111ec0 idt
80106fc6 vector218
80103f86 pinit
80107c5f deallocuvm
8010701a vector225
80106e52 vector187
801041c1 growproc
8010ff20 ncpu
8010681c vector30
801040a1 userinit
801001a6 bread
80106b85 vector127
80103e7f piperead
801126c0 ticks
80106e8e vector192
80106d56 vector166
80100a81 consoleinit
801069ba vector76
801069b1 vector75
801026ca ideintr
80106eb2 vector195
80106c96 vector150
80106918 vector58
8010712e vector248
80106b61 vector123
80106a6e vector96
80106825 vector31
80106f12 vector203
80106c12 vector139
80106cba vector153
80106d3e vector164
80104914 procdump
80106b4f vector121
80106666 uartputc
80106749 vector5
80106d62 vector167
80106cd2 vector155
8010713a vector249
80100217 brelse
80107146 vector250
80106b6a vector124
80106aec vector110
80106f1e vector204
80101847 ilock
80105ccb sys_exec
80106bfa vector137
8010b500 _binary_initcode_start
80104f47 swtch
80107122 vector247
801067d4 vector22
80106f06 vector202
80107207 seginit
80101acb iunlockput
80106996 vector72
801068fd vector55
80106b7c vector126
80106957 vector65
8010680a vector28
8010b5b6 _binary_entryother_end
80106d7a vector169
801001dd bwrite
8010707a vector233
8010627c idtinit
801043c9 exit
80105ec4 sys_wait
80105eb2 sys_exit
80102132 dirlink
0000002c _binary_initcode_size
80106c72 vector147
801024ff ideinit
80107a9a loaduvm
80106ab6 vector104
80106b22 vector116
8010ff40 ptable
80102949 ioapicenable
80104bfa popcli
8010b0bc vectors
801068e2 vector52
801067a9 vector17
80106e2e vector184
80104f20 strlen
801035ec mpbcpu
80105dd9 sys_pipe
80101590 iinit
80103a7c picinit
80106f42 vector207
80107a0f inituvm
80106e76 vector190
801070c2 vector239
80106a5c vector94
80106a53 vector93
80102fc3 initlog
80106e5e vector188
801068be vector48
8010278d iderw
80106fd2 vector219
80106c7e vector148
80106fea vector221
80102ace kalloc
8010e820 devsw
80105f02 sys_getpid
801069de vector80
80106d92 vector171
80106cc6 vector154
80106852 vector36
80103bbb pipealloc
80107092 vector235
80106abf vector105
80105c3a sys_chdir
8010e880 icache
80106c66 vector146
80106e82 vector191
80106aad vector103
80105b92 sys_mknod
80102ec9 lapicstartap
801078a8 switchuvm
80104bb6 pushcli
801029d8 kinit2
8010677b vector11
80106790 vector14
80101090 filestat
