00000000 .text
0000084b .rodata
00000880 .eh_frame
00000ac4 .data
00000ad8 .bss
00000000 .comment
00000000 .debug_aranges
00000000 .debug_info
00000000 .debug_abbrev
00000000 .debug_line
00000000 .debug_str
00000000 rm.c
00000000 ulib.c
0000008f stosb
00000000 printf.c
0000039f putc
000003c7 printint
00000ac4 digits.1028
00000000 umalloc.c
00000ad8 base
00000ae0 freep
00000713 morecore
00000000 
000000b4 strcpy
0000047f printf
000002b2 memmove
0000033f mknod
000001a1 gets
00000377 getpid
0000076b malloc
00000387 sleep
00000307 pipe
00000397 getsyscallinfo
00000317 write
0000034f fstat
00000327 kill
00000367 chdir
0000032f exec
000002ff wait
0000030f read
00000347 unlink
000002ef fork
0000037f sbrk
0000038f uptime
00000ad5 __bss_start
0000014a memset
00000000 main
000000e4 strcmp
0000036f dup
00000217 stat
00000ad5 _edata
00000ae4 _end
00000357 link
000002f7 exit
00000265 atoi
00000123 strlen
00000337 open
0000016e strchr
0000035f mkdir
0000031f close
00000632 free
