00000000 .text
000007df .rodata
000007e8 .eh_frame
00000a2c .data
00000a40 .bss
00000000 .comment
00000000 .debug_aranges
00000000 .debug_info
00000000 .debug_abbrev
00000000 .debug_line
00000000 .debug_str
00000000 zombie.c
00000000 ulib.c
00000023 stosb
00000000 printf.c
00000333 putc
0000035b printint
00000a2c digits.1028
00000000 umalloc.c
00000a40 base
00000a48 freep
000006a7 morecore
00000000 
00000048 strcpy
00000413 printf
00000246 memmove
000002d3 mknod
00000135 gets
0000030b getpid
000006ff malloc
0000031b sleep
0000029b pipe
0000032b getsyscallinfo
000002ab write
000002e3 fstat
000002bb kill
000002fb chdir
000002c3 exec
00000293 wait
000002a3 read
000002db unlink
00000283 fork
00000313 sbrk
00000323 uptime
00000a3d __bss_start
000000de memset
00000000 main
00000078 strcmp
00000303 dup
000001ab stat
00000a3d _edata
00000a4c _end
000002eb link
0000028b exit
000001f9 atoi
000000b7 strlen
000002cb open
00000102 strchr
000002f3 mkdir
000002b3 close
000005c6 free
